{
    "summary": "",
    "dateOfBirth": "1994-07-25",
    "email": "syd@cs-syd.eu",
    "phone": "+32 474 278 510",
    "location": {
        "postalCode": "8051",
        "address": "Altwiesenstrasse 93",
        "city": "Zuerich",
        "country": "Switzerland",
        "countryCode": "CH",
        "region": ""
    },
    "profiles": [
        {
            "url": "https://github.com/NorfairKing",
            "username": "NorfairKing",
            "network": "Github"
        }
    ],
    "website": "https://cs-syd.eu",
    "picture": "http://cs-syd.eu/assets/syd2.jpg",
    "name": "Tom Sydney Kerckhove",
    "label": "Technical Leader, Engineering Manager, Speaker"
}
