[    
    {
        "date": "2020-12",
        "institution": "Wire",
        "description": "Failed to get a response to my application."
    },
    {
        "date": "2020-12",
        "institution": "Conzone",
        "description": "Rejected for a position without interviews."
    },
    {
        "date": "2020-12",
        "institution": "Prima",
        "description": "Rejected after I refused to do free work as part of the interview process."
    },
    {
        "date": "2020-12",
        "institution": "IOHK",
        "description": "Rejected for a position after one interview."
    },
    {
        "date": "2020-12",
        "institution": "Platonic Systems",
        "description": "Rejected for a position after two interviews."
    },
    {
        "date": "2020-11",
        "institution": "Carbon Cloud",
        "description": "Rejected for a position without interviews."
    },
    {
        "date": "2020-11",
        "institution": "Elsen",
        "description": "Rejected for a position after five interviews."
    },
    {
        "date": "2020-11",
        "institution": "Tweag",
        "description": "Rejected for a position without interviews."
    },
    {
        "date": "2020-11",
        "institution": "Cross Compass",
        "description": "Rejected for a position without interviews."
    },
    {
        "date": "2020-11",
        "institution": "CarbonCloud",
        "description": "Rejected for a position after one interview."
    },
    {
        "date": "2020-10",
        "institution": "Simspace",
        "description": "Rejected for a position after one interview."
    },
    {
        "date": "2020-10",
        "institution": "Lumi",
        "description": "Failed to get a response to my application."
    },
    {
        "date": "2020-10",
        "institution": "Hubspot",
        "description": "Failed to get a response to my application."
    },    
    {
        "date": "2020-10",
        "institution": "Freckle",
        "description": "Rejected for a position without interviews."
    },
    {
        "date": "2020-10",
        "institution": "Simanalytics",
        "description": "Failed to sell more self-management training"
    },
    {
        "date": "2020-09",
        "institution": "Chordify",
        "description": "Failed to come to a working agreement after a successful interview process"
    },
    {
        "date": "2020-09",
        "institution": "E-bot7",
        "description": "Failed to continue the engagement after a successful project."
    },
    {
        "date": "2020-09",
        "institution": "Tezos",
        "description": "Rejected for a position after two interviews."
    },
    {
        "date": "2020-08",
        "institution": "Masterword",
        "description": "Rejected for a position without interviews."
    },
    {
        "date": "2020-08",
        "institution": "Typeable",
        "description": "Rejected for go give self-management training"
    },
    {
        "date": "2020-08",
        "institution": "Tweag",
        "description": "Rejected for go give self-management training"
    },
    {
        "date": "2020-07",
        "institution": "Typeable",
        "description": "Rejected for a position after one interview."
    },
    {
        "date": "2020-07",
        "institution": "Mercury",
        "description": "Rejected for a position without interviews."
    },
    {
        "date": "2020-07",
        "institution": "Bitnomial",
        "description": "Rejected for a position without interviews."
    },
    {
        "date": "2020-07",
        "institution": "Stackbuilders",
        "description": "Failed to get a response to my application."
    },
    {
        "date": "2020-07",
        "institution": "Soostone",
        "description": "Rejected for a position without interviews."
    },
    {
        "date": "2020-07",
        "institution": "Leapyear",
        "description": "Rejected for a position without interviews."
    },
    {
        "date": "2020-07",
        "institution": "Heilmann",
        "description": "Failed to get a response to my application."
    },
    {
        "date": "2020-07",
        "institution": "Fretlink",
        "description": "Failed to get a response to my application."
    },
    {
        "date": "2020-07",
        "institution": "Lumi",
        "description": "Failed to get a response to my application."
    },
    {
        "date": "2020-07",
        "institution": "Juspay",
        "description": "Ghosted after one interview."
    },
    {
        "date": "2020-07",
        "institution": "Costar Astrology",
        "description": "Failed to get a response to my application."
    },
    {
        "date": "2020-07",
        "institution": "Matrix AI",
        "description": "Rejected for a position after one interview."
    },
    {
        "date": "2020-06",
        "institution": "Secucloud",
        "description": "Rejected for a position after one interview."
    },
    {
        "date": "2020-06",
        "institution": "Central app",
        "description": "Failed to get a response to my application."
    },
    {
        "date": "2020-06",
        "institution": "IOHK",
        "description": "Failed to negotiate an agreement after more than six interviews."
    },
    {
        "date": "2020-06",
        "institution": "Typeable",
        "description": "Rejected for a position after one interview."
    },
    {
        "date": "2020-06",
        "institution": "Sqream",
        "description": "Rejected for a position without interviews."
    },
    {
        "date": "2020-06",
        "institution": "Adjoint",
        "description": "Rejected for a position without interviews."
    },
    {
        "date": "2020-05",
        "institution": "Contextflow",
        "description": "Rejected for a CTO position after one interview."
    },
    {
        "date": "2020-05",
        "institution": "Wire",
        "description": "Rejected for a position after four interviews."
    },
    {
        "date": "2020-05",
        "institution": "Chordify",
        "description": "Rejected for a position after three interviews."
    },
    {
        "date": "2020-05",
        "institution": "Tetmon",
        "description": "Rejected for a position after one interview."
    },
    {
        "date": "2020-05",
        "institution": "Hasura",
        "description": "Rejected for a position without interviews."
    },
    {
        "date": "2020-05",
        "institution": "Contextflow",
        "description": "Rejected for a position after one interview."
    },
    {
        "date": "2020-05",
        "institution": "NixOS Foundation",
        "description": "Failed to get a response to my application."
    },
    {
        "date": "2020-05",
        "institution": "KittyHawk",
        "description": "Failed to get a response to my application."
    },
    {
        "date": "2020-04",
        "institution": "Well-typed",
        "description": "Rejected for a position after one interview."
    },
    {
        "date": "2020-04",
        "institution": "Costar Astrology",
        "description": "Failed to get a response to my application."
    },
    {
        "date": "2020-04",
        "institution": "Unison",
        "description": "Rejected for a position without interviews."
    },
    {
        "date": "2020-04",
        "institution": "DevOpsDays Zurich",
        "description": "Rejected to give to give a talk."
    },
    {
        "date": "2020-04",
        "institution": "Channable",
        "description": "Rejected for a position after one interview."
    },
    {
        "date": "2020-04",
        "institution": "NoRedInk",
        "description": "Failed to get a second response to my application."
    },
    {
        "date": "2020-04",
        "institution": "Onai",
        "description": "Rejected for a position without interviews."
    },
    {
        "date": "2020-03",
        "institution": "Google Summer of Code",
        "description": "Failed to get a student to file a proposal for my project idea."
    },
    {
        "date": "2020-03",
        "institution": "LambdaConf",
        "description": "Failed to speak because of a global pandemic."
    },
    {
        "date": "2020-03",
        "institution": "DevopsDays",
        "description": "Failed to speak because of a global pandemic."
    },
    {
        "date": "2020-03",
        "institution": "Permutive",
        "description": "Rejected for a position without interviews."
    },
    {
        "date": "2020-03",
        "institution": "FP Complete",
        "description": "Failed to roll out my self-management training to everyone in the team."
    },
    {
        "date": "2020-03",
        "institution": "Mercury",
        "description": "Rejected for a position without interviews."
    },
    {
        "date": "2020-03",
        "institution": "flatMap(Oslo) 2020",
        "description": "Failed to be accepted to give to give a talk on eight accounts because of COVID-19"
    },
    {
        "date": "2020-03",
        "institution": "GoingVC",
        "description": "Rejected for a position without interviews."
    },
    {
        "date": "2020-02",
        "institution": "Serokell",
        "description": "Rejected for a position without interviews after my rejecting a take-home task."
    },
    {
        "date": "2020-02",
        "institution": "LeadDev New York",
        "description": "Rejected to give to give a talk."
    },
    {
        "date": "2020-02",
        "institution": "Holmusk",
        "description": "Rejected for a position after one interview and my rejecting a take-home task."
    },
    {
        "date": "2020-02",
        "institution": "Interos",
        "description": "Rejected for a position without interviews."
    },
    {
        "date": "2020-02",
        "institution": "DevopsDays Toronto 2020",
        "description": "Rejected to give to give a talk."
    },
    {
        "date": "2020-02",
        "institution": "Scalau 2020",
        "description": "Rejected to give to give a talk."
    },
    {
        "date": "2020-02",
        "institution": "Hasura",
        "description": "Rejected for a position without interviews."
    },
    {
        "date": "2020-01",
        "institution": "LambdaDays 2020",
        "description": "Rejected to give to give a talk on nine accounts, and again for the bonus talk."
    },
    {
        "date": "2019-12",
        "institution": "Belarusian State University: Department of radiophysics and computer technologies",
        "description": "Failed to get a response to speak"
    },
    {
        "date": "2019-12",
        "institution": "Belarusian State University: Department of mathematics and Mechanics",
        "description": "Failed to get a response to speak"
    },
    {
        "date": "2019-12",
        "institution": "SamSolutions",
        "description": "Failed to get a response to speak"
    },
    {
        "date": "2019-12",
        "institution": "Functional Scala",
        "description": "Failed to arrange transport and accomodation for my talk"
    },
    {
        "date": "2019-11",
        "institution": "Amsterdam DomCode Group",
        "description": "Failed to get a response to speak"
    },
    {
        "date": "2019-11",
        "institution": "Amsterdam Software Pragmatist Meetup",
        "description": "Failed to get a response to speak"
    },
    {
        "date": "2019-11",
        "institution": "Amsterdam Functional Programming Meetup",
        "description": "Failed to get a second response to speak"
    },
    {
        "date": "2019-11",
        "institution": "Belarusian State University: Department of radiophysics and computer technologies",
        "description": "Failed to get a response to speak"
    },
    {
        "date": "2019-11",
        "institution": "Belarusian State University: Department of mathematics and mechanics",
        "description": "Failed to get a response to speak"
    },
    {
        "date": "2019-11",
        "institution": "Samsolutions",
        "description": "Failed to get a response to speak"
    },
    {
        "date": "2019-11",
        "institution": "Stripe",
        "description": "Rejected funding a Haskell client library on three accounts"
    },
    {
        "date": "2019-10",
        "institution": "Minks Test automation meetup",
        "description": "Rejected to speak"
    },
    {
        "date": "2019-09",
        "institution": "Lambda ES Meetup",
        "description": "Failed to get a response to speak"
    },
    {
        "date": "2019-09",
        "institution": "Universidad de Cadiz",
        "description": "Failed to get a response to speak"
    },
    {
        "date": "2019-09",
        "institution": "Universidad de Sevilla",
        "description": "Failed to get a response to speak"
    },
    {
        "date": "2019-09",
        "institution": "Polyball 2019",
        "description": "Failed to domain-squat polyball tickets."
    },
    {
        "date": "2019-09",
        "institution": "Nixcon 2019",
        "description": "Rejected to give to give a talk on two accounts."
    },
    {
        "date": "2019-07",
        "institution": "Lambdaworld Cadiz 2019",
        "description": "Rejected to give to give a talk on four accounts."
    },
    {
        "date": "2019-06",
        "institution": "Luna Lang",
        "description": "Ghosted shortly after verbal confirming that I would be made an offer"
    },
    {
        "date": "2019-06",
        "institution": "BobConf 2019",
        "description": "Rejected to give to give a talk on four accounts."
    },
    {
        "date": "2019-06",
        "institution": "Masterword",
        "description": "Ghosted during an application"
    },
    {
        "date": "2019-06",
        "institution": "Lambdale 2019",
        "description": "Rejected to give to give a talk on three accounts."
    },
    {
        "date": "2019-05",
        "institution": "CS Syd",
        "description": "Failed to make Snotify profitable or even useful."
    },
    {
        "date": "2019-05",
        "institution": "Strangeloop 2019",
        "description": "Rejected to give to give a talk on four accounts."
    },
    {
        "date": "2019-05",
        "institution": "Mercury",
        "description": "Rejected for a position without interviews."
    },
    {
        "date": "2019-05",
        "institution": "Interos",
        "description": "Failed to get a response to my application."
    },
    {
        "date": "2019-05",
        "institution": "Obsidian Systems",
        "description": "Failed to get a response to my application."
    },
    {
        "date": "2019-05",
        "institution": "Lumi",
        "description": "Failed to get a response to my application."
    },
    {
        "date": "2019-05",
        "institution": "Curry on 2019",
        "description": "Rejected to give to give a talk on three accounts."
    },
    {
        "date": "2019-04",
        "institution": "Digital Asset",
        "description": "Rejected to give to give a talk."
    },
    {
        "date": "2019-04",
        "institution": "compose conference 2019",
        "description": "Rejected to give to give a talk on four accounts."
    },
    {
        "date": "2019-04",
        "institution": "Typeable",
        "description": "Ghosted shortly after responding positively to my application."
    },
    {
        "date": "2019-04",
        "institution": "Costar Astrology",
        "description": "Rejected for a position after an interview."
    },
    {
        "date": "2019-04",
        "institution": "Formation",
        "description": "Rejected for a position without interviews."
    },
    {
        "date": "2019-04",
        "institution": "Cloud Seal",
        "description": "Rejected for a position without interviews."
    },
    {
        "date": "2019-04",
        "institution": "Pyrofex",
        "description": "Rejected for a position without interviews."
    },
    {
        "date": "2019-03",
        "institution": "flatMap(Oslo) 2019",
        "description": "Rejected to give to give a talk on two accounts."
    },
    {
        "date": "2019-03",
        "institution": "Lambdaconf",
        "description": "Rejected to give to give a talk on two accounts."
    },
    {
        "date": "2019-02",
        "institution": "Double Crown",
        "description": "Rejected for a position without interviews."
    },
    {
        "date": "2019-02",
        "institution": "TVision Insights",
        "description": "Rejected for a position without interviews."
    },
    {
        "date": "2019-02",
        "institution": "Hashicorp",
        "description": "Failed to get a response to my application."
    },
    {
        "date": "2019-02",
        "institution": "Freckle",
        "description": "Failed to get a response to my application."
    },
    {
        "date": "2019-01",
        "institution": "CS Syd",
        "description": "Failed to reach any potential customers with a startup idea"
    },
    {
        "date": "2019-01",
        "institution": "IMEC",
        "description": "Rejected to give a training"
    },
    {
        "date": "2019-01",
        "institution": "Tinder",
        "description": "Rejected for a position without interviews."
    },
    {
        "date": "2019-01",
        "institution": "Concordium",
        "description": "Failed to receive a response to my application"
    },
    {
        "date": "2018-12",
        "institution": "CS Syd",
        "description": "Failed to make SpecialGift profitable or even useful."
    },
    {
        "date": "2018-12",
        "institution": "f(by)",
        "description": "Rejected to give a talk"
    },
    {
        "date": "2018-12",
        "institution": "Lambda Days",
        "description": "Rejected to give a talk"
    },
    {
        "date": "2018-12",
        "institution": "BOB Conference",
        "description": "Rejected to give a talk"
    },
    {
        "date": "2018-12",
        "institution": "Tweag",
        "description": "Failed to come to an agreement about a talk"
    },
    {
        "date": "2018-11",
        "institution": "Habito",
        "description": "Rejected to give a talk"
    },
    {
        "date": "2018-11",
        "institution": "Google",
        "description": "Rejected for the Compiler and Programming Language Summit 2018"
    },
    {
        "date": "2018-11",
        "institution": "MPowered",
        "description": "Ignored halfway during the process"
    },
    {
        "date": "2018-10",
        "institution": "Adjoint",
        "description": "Rejected to give a talk"
    },
    {
        "date": "2018-10",
        "institution": "CircuitHub",
        "description": "Rejected to give a talk"
    },
    {
        "date": "2018-10",
        "institution": "Standard Chartered",
        "description": "Rejected to give a talk"
    },
    {
        "date": "2018-10",
        "institution": "DFinity",
        "description": "Failed to negotiate an agreement after receiving an offer and multiple interviews."
    },
    {
        "date": "2018-09",
        "institution": "Obsidian Systems",
        "description": "Rejected to give a talk"
    },
    {
        "date": "2018-09",
        "institution": "Partial Conf",
        "description": "Ignored when I applied to give a talk"
    },
    {
        "date": "2018-09",
        "institution": "Deliver Of Things",
        "description": "Ignored when I applied to give a talk"
    },
    {
        "date": "2018-09",
        "institution": "Google",
        "description": "Rejected for a position after the second phone-interview"
    },
    {
        "date": "2018-09",
        "institution": "Tesla",
        "description": "Failed to receive a response to my application"
    },
    {
        "date": "2018-09",
        "institution": "GitHub",
        "description": "Rejected by mistake, but without a fix"
    },
    {
        "date": "2018-08",
        "institution": "Facebook Testing and Verification Challenge",
        "description": "Failed to be win the award"
    },
    {
        "date": "2018-08",
        "institution": "Haskell Exchange",
        "description": "Rejected for a position after onsite interviews"
    },
    {
        "date": "2018-07",
        "institution": "Haskell Exchange",
        "description": "Rejected to give a talk"
    },
    {
        "date": "2018-07",
        "institution": "Lambda World Cadiz",
        "description": "Rejected to give a talk"
    },
    {
        "date": "2018-07",
        "institution": "Compose Conference",
        "description": "Rejected to give a talk"
    },
    {
        "date": "2018-07",
        "institution": "All Things Open",
        "description": "Rejected to give a talk"
    },
    {
        "date": "2018-07",
        "institution": "Lambda World Seattle",
        "description": "Rejected to give a talk"
    },
    {
        "date": "2018-06",
        "institution": "All Things Open",
        "description": "Rejected to give a talk"
    },
    {
        "date": "2018-06",
        "institution": "Agile + DevOps East 2018",
        "description": "Rejected to give a talk"
    },
    {
        "date": "2018-06",
        "institution": "DevOps East 2018",
        "description": "Rejected to give a talk"
    },
    {
        "date": "2018-05",
        "institution": "STARCanada",
        "description": "Rejected to give a talk"
    },
    {
        "date": "2018-05",
        "institution": "Curry On",
        "description": "Rejected to give a talk"
    },
    {
        "date": "2018-05",
        "institution": "Stack Builders",
        "description": "Rejected for a position after the HR interview"
    },
    {
        "date": "2018-05",
        "institution": "STARWEST",
        "description": "Rejected to give a talk"
    },
    {
        "date": "2018-05",
        "institution": "Google Cloud Next",
        "description": "Rejected to give a talk"
    },
    {
        "date": "2018-04",
        "institution": "DevOps Enterprise Summit",
        "description": "Rejected to give a talk"
    },
    {
        "date": "2018-04",
        "institution": "Lambdaconf",
        "description": "Failed to give a talk because of a scheduling conflict"
    },
    {
        "date": "2018-04",
        "institution": "IMEC",
        "description": "Rejected to give a GTD workshop"
    },
    {
        "date": "2018-04",
        "institution": "GitHub",
        "description": "Rejected by mistake, but without a fix"
    },
    {
        "date": "2018-04",
        "institution": "KubeCon",
        "description": "Ignored when I applied to give a talk"
    },
    {
        "date": "2018-04",
        "institution": "SRECon",
        "description": "Ignored when I applied to give a talk"
    },
    {
        "date": "2018-04",
        "institution": "DockerCon",
        "description": "Ignored when I applied to give a talk"
    },
    {
        "date": "2018-04",
        "institution": "Social Print Studio",
        "description": "Rejected to connect through AngelList"
    },
    {
        "date": "2018-03",
        "institution": "Tamedia TX",
        "description": "Rejected to give a talk"
    },
    {
        "date": "2018-03",
        "institution": "Software Craftmanship Conference",
        "description": "Rejected to give a talk"
    },
    {
        "date": "2018-03",
        "institution": "Google Next Conference",
        "description": "Rejected to give a talk"
    },
    {
        "date": "2018-03",
        "institution": "UgentDSS",
        "description": "Rejected to give a talk"
    },
    {
        "date": "2018-02",
        "institution": "Better Software East",
        "description": "Ignored when I applied to give a talk"
    },
    {
        "date": "2018-02",
        "institution": "StarCanada",
        "description": "Ignored when I applied to give a talk"
    },
    {
        "date": "2018-02",
        "institution": "StarWest",
        "description": "Ignored when I applied to give a talk"
    },
    {
        "date": "2018-02",
        "institution": "DevOps East",
        "description": "Ignored when I applied to give a talk"
    },
    {
        "date": "2018-02",
        "institution": "Innovation summit",
        "description": "Ignored when I applied to give a talk"
    },
    {
        "date": "2018-01",
        "institution": "Velocity",
        "description": "Ignored when I applied to give a talk"
    },
    {
        "date": "2018-01",
        "institution": "Code Beam SF",
        "description": "Rejected to give a talk"
    },
    {
        "date": "2018-01",
        "institution": "Thinking digital",
        "description": "Rejected to give a talk for all seven conferences."
    },
    {
        "date": "2017-12",
        "institution": "ETH",
        "description": "Rejected for a guest lecture at the functional programming course."
    },
    {
        "date": "2017-11",
        "institution": "Google",
        "description": "Rejected to give a tech talk, three times."
    },
    {
        "date": "2017-09",
        "institution": "ETH Zuerich",
        "description": "Failed to publish my thesis."
    },
    {
        "date": "2017-09",
        "institution": "Keis",
        "description": "Failed to get a response to my application after a referral and an interview"
    },
    {
        "date": "2017-08",
        "institution": "Channable",
        "description": "Rejected for a position after two interviews."
    },
    {
        "date": "2017-08",
        "institution": "TVision Insights",
        "description": "Failed to get a response to my application."
    },
    {
        "date": "2017-08",
        "institution": "TuringJump",
        "description": "Failed to get a response to my application."
    },
    {
        "date": "2017-08",
        "institution": "Tripshot",
        "description": "Failed to get a response to my application."
    },
    {
        "date": "2017-08",
        "institution": "Tesla",
        "description": "Failed to get a response to my three applications."
    },
    {
        "date": "2017-08",
        "institution": "Swift",
        "description": "Failed to get a response after an interview without a rejection."
    },
    {
        "date": "2017-08",
        "institution": "Stackoverflow",
        "description": "Failed to get a response to my application."
    },
    {
        "date": "2017-08",
        "institution": "Spotify",
        "description": "Failed to get a response after an interview."
    },
    {
        "date": "2017-08",
        "institution": "Soostone",
        "description": "Failed to get a response to my application."
    },
    {
        "date": "2017-08",
        "institution": "Simspace",
        "description": "Failed to get a response to my application."
    },
    {
        "date": "2017-08",
        "institution": "Quviq",
        "description": "Failed to get a response to my application."
    },
    {
        "date": "2017-08",
        "institution": "Plowtech",
        "description": "Failed to get a response to my application."
    },
    {
        "date": "2017-08",
        "institution": "Permutive",
        "description": "Failed to get a response after being referred by a head hunter."
    },
    {
        "date": "2017-08",
        "institution": "Opus",
        "description": "Failed to get a response after being contacted."
    },
    {
        "date": "2017-08",
        "institution": "NStack",
        "description": "Failed to get a response to my application."
    },
    {
        "date": "2017-08",
        "institution": "Lumiguide",
        "description": "Failed to get a response after two interviews without a rejection."
    },
    {
        "date": "2017-08",
        "institution": "Leapyear",
        "description": "Failed to get a response to my application."
    },
    {
        "date": "2017-08",
        "institution": "IOHK",
        "description": "Failed to get a response to my application."
    },
    {
        "date": "2017-08",
        "institution": "IFTTT",
        "description": "Failed to get a response to my application."
    },
    {
        "date": "2017-08",
        "institution": "Haskell Lovers Stealth Co.",
        "description": "Failed to get a response to my application."
    },
    {
        "date": "2017-08",
        "institution": "Google",
        "description": "Failed to get a response to my six applications."
    },
    {
        "date": "2017-08",
        "institution": "Blk.io",
        "description": "Failed to get a response to set up an interview."
    },
    {
        "date": "2017-08",
        "institution": "Awake networks",
        "description": "Failed to get a response to an application."
    },
    {
        "date": "2017-08",
        "institution": "Adjoint",
        "description": "Failed to get a response after multiple interviews without a rejection."
    },
    {
        "date": "2017-08",
        "institution": "Barclays",
        "description": "Failed to negotiate an agreement after receiving an offer and six interviews."
    },
    {
        "date": "2017-08",
        "institution": "Digital asset",
        "description": "Rejected for a position after two interviews."
    },
    {
        "date": "2017-08",
        "institution": "Galois",
        "description": "Rejected for a position without interviews."
    },
    {
        "date": "2017-08",
        "institution": "Sqream",
        "description": "Rejected for a full-time remote position without interviews."
    },
    {
        "date": "2017-08",
        "institution": "Github Universe",
        "description": "Rejected to speak at github universe 2017."
    },
    {
        "date": "2017-08",
        "institution": "Ambiata",
        "description": "Rejected for a position without interviews."
    },
    {
        "date": "2017-07",
        "institution": "Stripe",
        "description": "Rejected for a position without interviews."
    },
    {
        "date": "2017-07",
        "institution": "Fugue",
        "description": "Rejected for a position without interviews."
    },
    {
        "date": "2017-07",
        "institution": "Dropbox",
        "description": "Rejected for a full-time SRE position without interviews."
    },
    {
        "date": "2017-07",
        "institution": "Well-typed",
        "description": "Rejected for a position after two interviews."
    },
    {
        "date": "2017-06",
        "institution": "Wealthport",
        "description": "Failed to get a response to set up an initial call."
    },
    {
        "date": "2017-06",
        "institution": "ESMOL Parents Association",
        "description": "Failed to bring them on as my client after three months of negotiations."
    },
    {
        "date": "2017-06",
        "institution": "IBM",
        "description": "Rejected for any position without even a first response."
    },
    {
        "date": "2017-06",
        "institution": "Standard Chartered",
        "description": "Failed to negotiate an agreement after receiving an offer and more than ten interviews."
    },
    {
        "date": "2017-06",
        "institution": "Digital Asset",
        "description": "Rejected for a part-time short-term contracting position."
    },
    {
        "date": "2017-06",
        "institution": "Quadrature capital",
        "description": "Failed to negotiate a less-ridiculous NDA for an interview."
    },
    {
        "date": "2017-06",
        "institution": "Gambit Research",
        "description": "Rejected for a position."
    },
    {
        "date": "2017-05",
        "institution": "Cosmobutler",
        "description": "Failed to bring them on as my client."
    },
    {
        "date": "2017-05",
        "institution": "IBM",
        "description": "Rejected for a position without interviews."
    },
    {
        "date": "2017-05",
        "institution": "Twint",
        "description": "Rejected for a devops position after two interviews."
    },
    {
        "date": "2017-05",
        "institution": "G-Research",
        "description": "Rejected for a position after one interview."
    },
    {
        "date": "2017-05",
        "institution": "Amazon",
        "description": "Failed to get a first reply to an application."
    },
    {
        "date": "2017-05",
        "institution": "SCS",
        "description": "Rejected for any position without any interviews."
    },
    {
        "date": "2017-05",
        "institution": "Fugue",
        "description": "Rejected for any position without any interviews."
    },
    {
        "date": "2017-05",
        "institution": "Codeworld",
        "description": "Rejected for remote part-time position without any interviews."
    },
    {
        "date": "2017-04",
        "institution": "NStack",
        "description": "Rejected for remote part-time position after an initial call."
    },
    {
        "date": "2017-04",
        "institution": "Functor",
        "description": "Failed to get an initial reply."
    },
    {
        "date": "2017-04",
        "institution": "Simplaex",
        "description": "Rejected for a full-time remote position in 2017 after four interviews."
    },
    {
        "date": "2017-03",
        "institution": "Secucloud",
        "description": "Rejected for a position in 2017 after two interviews."
    },
    {
        "date": "2017-03",
        "institution": "Vacation Labs",
        "description": "Rejected for a full-time remote position without interviews."
    },
    {
        "date": "2017-03",
        "institution": "Habito",
        "description": "Rejected for remote part-time position without interviews."
    },
    {
        "date": "2017-03",
        "institution": "XTX",
        "description": "Rejected for full-time position in 2017 after five interviews."
    },
    {
        "date": "2017-03",
        "institution": "Improbable",
        "description": "Rejected for full-time position in 2017 after five interviews."
    },
    {
        "date": "2017-03",
        "institution": "Ambiata",
        "description": "Failed to get a first set of interviews."
    },
    {
        "date": "2017-02",
        "institution": "Standard Chartered",
        "description": "Failed to get a first set of interviews."
    },
    {
        "date": "2017-01",
        "institution": "ETH",
        "description": "Thesis proposal rejected: Functional property discovery and test generation."
    },
    {
        "date": "2016-11",
        "institution": "Digital Asset",
        "description": "Rejected for part-time remote position after first interview."
    },
    {
        "date": "2016-11",
        "institution": "IOHK",
        "description": "Rejected for full-time position after first interview."
    },
    {
        "date": "2016-11",
        "institution": "Atidot",
        "description": "Failed to secure my first consulting gig."
    },
    {
        "date": "2016-11",
        "institution": "Google",
        "description": "Rejected for full-time position in 2017 after an internship and five interviews."
    },
    {
        "date": "2016-11",
        "institution": "Ambiata",
        "description": "Failed to get a reply after a first interview."
    },
    {
        "date": "2016-11",
        "institution": "Front row education",
        "description": "Failed to get a reply after an initial application."
    },
    {
        "date": "2016-09",
        "institution": "Facebook",
        "description": "Rejected for full-time position in 2017 after internship."
    },
    {
        "date": "2016-08",
        "institution": "Alphasheets",
        "description": "Rejected for a remote contracting job after first interview."
    },
    {
        "date": "2016-08",
        "institution": "Lumiguide",
        "description": "Rejected for a remote contracting job without an interview."
    },
    {
        "date": "2016-08",
        "institution": "Luna",
        "description": "Rejected for a remote contracting job after first interview."
    },
    {
        "date": "2016-08",
        "institution": "Leapyear",
        "description": "Rejected for a remote contracting job after first interview."
    },
    {
        "date": "2016-08",
        "institution": "Myrtle",
        "description": "Rejected for a remote contracting job without an interview."
    },
    {
        "date": "2016-08",
        "institution": "FPComplete",
        "description": "Rejected for a remote contracting job without an interview."
    },
    {
        "date": "2016-08",
        "institution": "Standard Chartered",
        "description": "Rejected for a remote contracting job without an interview."
    },
    {
        "date": "2016-08",
        "institution": "Awake networks",
        "description": "Rejected for a remote contracting job after first interview."
    },
    {
        "date": "2016-07",
        "institution": "Well-typed",
        "description": "Rejected for a first interview for a remote contracting job."
    },
    {
        "date": "2016-06",
        "institution": "Wrinkl",
        "description": "Rejected for a first interview for a remote contracting job."
    },
    {
        "date": "2016-01",
        "institution": "Twitter",
        "description": "Rejected for an internship after a first interview."
    },
    {
        "date": "2015-11",
        "institution": "Dropbox",
        "description": "Rejected for an internship after a first interview."
    },
    {
        "date": "2015-11",
        "institution": "Github",
        "description": "Rejected for a first interview."
    },
    {
        "date": "2015-10",
        "institution": "Twitter",
        "description": "Failed to get a reply after initial application for an internship."
    },
    {
        "date": "2015-02",
        "institution": "Tsuru Capital",
        "description": "Rejected for an internship after a first interview."
    },
    {
        "date": "2014-12",
        "institution": "Google",
        "description": "Failed to get on a Haskell team for the internship."
    }
]
