[
    {
        "location": "Mol",
        "country": "Belgium",
        "startDate": "2012",
        "endDate": "2012-09-11",
        "color": "green",
        "extra": [
            "Hoogeind 81, 2400 Mol"
        ]
    },
    {
        "location": "Leuven",
        "country": "Belgium",
        "startDate": "2012-09-12",
        "endDate": "2014-07-12",
        "color": "green",
        "extra": [
            "Jaar 1: Kloosterstraat 2, Leuven",
            "Jaar 2: Naamsesteenweg 174, Leuven",
            "Jaar 3: Willem de Croylaan 14/44, Leuven"
        ]
    },
    {
        "location": "Skopje",
        "country": "Macedonia",
        "startDate": "2014-07-13",
        "endDate": "2014-07-20",
        "color": "purple",
        "extra": [
            "Not exactly sure about end date. It was a sunday though."
        ]
    },
    {
        "location": "Leuven",
        "country": "Belgium",
        "startDate": "2014-07-21",
        "endDate": "2015-06-20",
        "color": "green"
    },
    {
        "location": "London",
        "country": "United Kingdom",
        "startDate": "2015-06-21",
        "endDate": "2015-07-25",
        "color": "red",
        "extra": [
            "First two months: 12 Macroom Road WH93Y, London, United Kingdon",
            "Last month: 185 Victoria street, London, United Kingdom"
        ]
    },
    {
        "location": "Zuerich",
        "country": "Switzerland",
        "startDate": "2015-07-26",
        "endDate": "2015-07-29",
        "color": "blue"
    },
    {
        "location": "London",
        "country": "United Kingdom",
        "startDate": "2015-07-30",
        "endDate": "2015-09-12",
        "color": "red"
    },
    {
        "location": "Zuerich",
        "country": "Switzerland",
        "startDate": "2015-09-12",
        "endDate": "2015-12-23",
        "color": "blue",
        "extra": [
            "With the Niedermanns: Bergstrasse 3, 8044 Zuerich, Switzerland",
            "Hammerstrasse 78, 8032 Zuerich, Switzerland",
            "Obere Weirstrasse 4, 8037 Zuerich, Switzerland"
        ]
    },
    {
        "location": "Mol",
        "country": "Belgium",
        "startDate": "2015-12-24",
        "endDate": "2016-01-03",
        "color": "green"
    },
    {
        "location": "Zuerich",
        "country": "Switzerland",
        "startDate": "2016-01-03",
        "endDate": "2016-06-24",
        "color": "blue"
    },
    {
        "location": "London",
        "country": "United Kingdom",
        "startDate": "2016-06-24",
        "endDate": "2016-09-18",
        "color": "red",
        "extra": [
            "2 Brewhouse Yard, EC1V 4DG, London, United Kingdom"
        ]
    },
    {
        "location": "Zuerich",
        "country": "Switzerland",
        "startDate": "2016-09-19",
        "endDate": "2016-09-29",
        "color": "blue",
        "extra": [
            "Schuetzenmattstrasse 13, 8302 Kloten, Switzerland"
        ]
    },
    {
        "location": "Mol",
        "country": "Belgium",
        "startDate": "2016-09-30",
        "endDate": "2016-10-04",
        "color": "green"
    },
    {
        "location": "London",
        "country": "United Kingdom",
        "startDate": "2016-10-05",
        "endDate": "2016-10-11",
        "color": "red"
    },
    {
        "location": "Zuerich",
        "country": "Switzerland",
        "startDate": "2016-10-12",
        "endDate": "2016-11-24",
        "color": "blue",
        "extra": [
            "Altwiesenstrasse 93, 8051 Zuerich, Switzerland"
        ]
    },
    {
        "location": "London",
        "country": "United Kingdom",
        "startDate": "2016-11-25",
        "endDate": "2016-11-30",
        "color": "red"
    },
    {
        "location": "Zuerich",
        "country": "Switzerland",
        "startDate": "2016-11-30",
        "endDate": "2017-01-29",
        "color": "blue"
    },
    {
        "location": "London",
        "country": "United Kingdom",
        "startDate": "2017-01-29",
        "endDate": "2017-02-01",
        "color": "red"
    },
    {
        "location": "Mol",
        "country": "Belgium",
        "startDate": "2017-02-01",
        "endDate": "2017-02-11",
        "color": "red"
    },
    {
        "location": "London",
        "country": "United Kingdom",
        "startDate": "2017-02-11",
        "endDate": "2017-02-19",
        "color": "red"
    },
    {
        "location": "Zuerich",
        "country": "Switzerland",
        "startDate": "2017-02-19",
        "endDate": "2017-03-02",
        "color": "blue"
    },
    {
        "location": "London",
        "country": "United Kingdom",
        "startDate": "2017-03-02",
        "endDate": "2017-03-07",
        "color": "red"
    },
    {
        "location": "Zuerich",
        "country": "Switzerland",
        "startDate": "2017-03-07",
        "endDate": "2017-05-15",
        "color": "blue"
    },
    {
        "location": "London",
        "country": "United Kingdom",
        "startDate": "2017-05-15",
        "endDate": "2017-05-19",
        "color": "red"
    },
    {
        "location": "Zuerich",
        "country": "Switzerland",
        "startDate": "2017-05-19",
        "endDate": "2017-06-13",
        "color": "blue"
    },
    {
        "location": "London",
        "country": "United Kingdom",
        "startDate": "2017-06-13",
        "endDate": "2017-06-23",
        "color": "red"
    },
    {
        "location": "Zuerich",
        "country": "Switzerland",
        "startDate": "2017-06-23",
        "endDate": "2017-09-11",
        "color": "blue"
    },
    {
        "location": "London",
        "country": "United Kingdom",
        "startDate": "2017-09-11",
        "endDate": "2017-09-13",
        "color": "red"
    },
    {
        "location": "Mol",
        "country": "Belgium",
        "startDate": "2017-10-13",
        "endDate": "2017-10-19",
        "color": "red"
    },
    {
        "location": "Zuerich",
        "country": "Switzerland",
        "startDate": "2017-09-19",
        "endDate": "2017-10-11",
        "color": "blue"
    },
    {
        "location": "London",
        "country": "United Kingdom",
        "startDate": "2017-10-11",
        "endDate": "2017-10-13",
        "color": "red"
    },
    {
        "location": "Zuerich",
        "country": "Switzerland",
        "startDate": "2017-10-13",
        "endDate": "2017-12-23",
        "color": "blue"
    },
    {
        "location": "Mol",
        "country": "Belgium",
        "startDate": "2017-12-23",
        "endDate": "2018-01-06",
        "color": "green"
    },
    {
        "location": "Zuerich",
        "country": "Switzerland",
        "startDate": "2018-01-06",
        "endDate": "2018-02-17",
        "color": "blue"
    },
    {
        "location": "Leuven",
        "country": "Belgium",
        "startDate": "2018-02-17",
        "endDate": "2018-02-21",
        "color": "green"
    },
    {
        "location": "Krakow",
        "country": "Poland",
        "startDate": "2018-02-21",
        "endDate": "2018-02-23",
        "color": "green"
    },
    {
        "location": "Zuerich",
        "country": "Switzerland",
        "startDate": "2018-02-23",
        "endDate": "2018-05-16",
        "color": "blue"
    },
    {
        "location": "Leuven",
        "country": "Belgium",
        "startDate": "2018-05-16",
        "endDate": "2018-05-21",
        "color": "green"
    },
    {
        "location": "Dubai",
        "country": "United Arab Emirates",
        "startDate": "2018-05-21",
        "endDate": "2018-05-22",
        "color": "orange"
    },
    {
        "location": "Sydney",
        "country": "Australia",
        "startDate": "2018-05-22",
        "endDate": "2018-05-29",
        "color": "yellow"
    },
    {
        "location": "Gold Coast",
        "country": "Australia",
        "startDate": "2018-05-29",
        "endDate": "2018-05-31",
        "color": "yellow"
    },
    {
        "location": "Canberra",
        "country": "Australia",
        "startDate": "2018-05-31",
        "endDate": "2018-06-02",
        "color": "yellow"
    },
    {
        "location": "Melbourne",
        "country": "Australia",
        "startDate": "2018-06-02",
        "endDate": "2018-06-05",
        "color": "yellow"
    },
    {
        "location": "Sydney",
        "country": "Australia",
        "startDate": "2018-06-05",
        "endDate": "2018-06-06",
        "color": "yellow"
    },
    {
        "location": "Dubai",
        "country": "United Arab Emirates",
        "startDate": "2018-06-06",
        "endDate": "2018-06-07",
        "color": "orange"
    },
    {
        "location": "Zuerich",
        "country": "Switzerland",
        "startDate": "2018-06-07",
        "endDate": "2018-06-11",
        "color": "blue"
    },
    {
        "location": "Warshaw",
        "country": "Poland",
        "startDate": "2018-06-11",
        "endDate": "2018-06-12",
        "color": "green"
    },
    {
        "location": "Poznan",
        "country": "Poland",
        "startDate": "2018-06-12",
        "endDate": "2018-06-17",
        "color": "green"
    },
    {
        "location": "Warshaw",
        "country": "Poland",
        "startDate": "2018-06-17",
        "endDate": "2018-06-18",
        "color": "green"
    },
    {
        "location": "Zuerich",
        "country": "Switzerland",
        "startDate": "2018-06-18",
        "endDate": "2018-08-02",
        "color": "blue"
    },
    {
        "location": "London",
        "country": "United Kingdom",
        "startDate": "2018-08-02",
        "endDate": "2018-08-05",
        "color": "blue"
    },
    {
        "location": "Zuerich",
        "country": "Switzerland",
        "startDate": "2018-08-05",
        "endDate": "2018-08-28",
        "color": "blue"
    },
    {
        "location": "San Francisco",
        "country": "United States",
        "startDate": "2018-08-28",
        "endDate": "2018-09-05",
        "color": "yellow"
    },
    {
        "location": "Zuerich",
        "country": "Switzerland",
        "startDate": "2018-09-05",
        "endDate": "2018-09-07",
        "color": "blue"
    },
    {
        "location": "Malaga",
        "country": "Spain",
        "startDate": "2018-09-07",
        "endDate": "2018-09-11",
        "color": "orange"
    },
    {
        "location": "Zuerich",
        "country": "Switzerland",
        "startDate": "2018-09-11",
        "endDate": "2018-09-23",
        "color": "blue"
    },
    {
        "location": "Berlin",
        "country": "Germany",
        "startDate": "2018-09-23",
        "endDate": "2018-09-24",
        "color": "yellow"
    },
    {
        "location": "Poznan",
        "country": "Poland",
        "startDate": "2018-09-23",
        "endDate": "2018-09-25",
        "color": "green"
    },
    {
        "location": "Warsaw",
        "country": "Poland",
        "startDate": "2018-09-25",
        "endDate": "2018-09-26",
        "color": "green"
    },
    {
        "location": "Poznan",
        "country": "Poland",
        "startDate": "2018-09-26",
        "endDate": "2018-09-27",
        "color": "green"
    },
    {
        "location": "Zuerich",
        "country": "Switzerland",
        "startDate": "2018-09-27",
        "endDate": "2018-10-23",
        "color": "blue"
    },
    {
        "location": "Helsinki",
        "country": "Finland",
        "startDate": "2018-10-23",
        "endDate": "2018-10-27",
        "color": "yellow"
    },
    {
        "location": "Zuerich",
        "country": "Switzerland",
        "startDate": "2018-10-27",
        "endDate": "2018-11-17",
        "color": "blue"
    },
    {
        "location": "London",
        "country": "United Kingdom",
        "startDate": "2018-11-17",
        "endDate": "2018-11-20",
        "color": "blue"
    },
    {
        "location": "Zuerich",
        "country": "Switzerland",
        "startDate": "2018-11-20",
        "endDate": "2018-12-19",
        "color": "blue"
    },
    {
        "location": "Mol",
        "country": "Belgium",
        "startDate": "2018-12-19",
        "endDate": "2019-01-05",
        "color": "red"
    },
    {
        "location": "Zuerich",
        "country": "Switzerland",
        "startDate": "2019-01-05",
        "endDate": "2019-02-18",
        "color": "blue"
    },
    {
        "location": "Helsinki",
        "country": "Finland",
        "startDate": "2019-02-18",
        "endDate": "2019-02-20",
        "color": "yellow"
    },
    {
        "location": "Zuerich",
        "country": "Switzerland",
        "startDate": "2019-02-20",
        "endDate": "2019-02-28",
        "color": "blue"
    },
    {
        "location": "Milan",
        "country": "Italy",
        "startDate": "2019-02-28",
        "endDate": "2019-03-04",
        "color": "orange"
    },
    {
        "location": "Zuerich",
        "country": "Switzerland",
        "startDate": "2019-03-04",
        "endDate": "2019-04-15",
        "color": "blue"
    },
    {
        "location": "Leuven",
        "country": "Belgium",
        "startDate": "2019-04-15",
        "endDate": "2019-04-23",
        "color": "orange"
    },
    {
        "location": "Zuerich",
        "country": "Switzerland",
        "startDate": "2019-04-23",
        "endDate": "2019-04-29",
        "color": "blue"
    },
    {
        "location": "Muenchen",
        "country": "Germany",
        "startDate": "2019-04-29",
        "endDate": "2019-04-29",
        "color": "orange"
    },
    {
        "location": "Poznan",
        "country": "Poland",
        "startDate": "2019-04-29",
        "endDate": "2019-05-04",
        "color": "blue"
    },
    {
        "location": "Frankfurt",
        "country": "Germany",
        "startDate": "2019-05-04",
        "endDate": "2019-05-04",
        "color": "orange"
    },
    {
        "location": "Zuerich",
        "country": "Switzerland",
        "startDate": "2019-05-04",
        "endDate": "2019-05-21",
        "color": "blue"
    },
    {
        "location": "Strassbourg",
        "country": "France",
        "startDate": "2019-05-21",
        "endDate": "2019-05-23",
        "color": "lightblue"
    },
    {
        "location": "Zuerich",
        "country": "Switzerland",
        "startDate": "2019-05-23",
        "endDate": "2019-06-14",
        "color": "blue"
    },
    {
        "location": "Rapperswil",
        "country": "Zuerich",
        "startDate": "2019-06-14",
        "endDate": "2019-06-16",
        "color": "blue"
    },
    {
        "location": "Zuerich",
        "country": "Switzerland",
        "startDate": "2019-06-16",
        "endDate": "2019-06-17",
        "color": "blue"
    },
    {
        "location": "Berlin",
        "country": "Germany",
        "startDate": "2019-06-17",
        "endDate": "2019-06-17",
        "color": "blue"
    },
    {
        "location": "Poznan",
        "country": "Poland",
        "startDate": "2019-06-17",
        "endDate": "2019-06-24",
        "color": "blue"
    },
    {
        "location": "Berlin",
        "country": "Germany",
        "startDate": "2019-06-24",
        "endDate": "2019-06-24",
        "color": "blue"
    },
    {
        "location": "Zuerich",
        "country": "Switzerland",
        "startDate": "2019-06-24",
        "endDate": "2019-11-04",
        "color": "blue"
    },
    {
        "location": "Malaga",
        "country": "Spain",
        "startDate": "2019-11-04",
        "endDate": "2019-11-11",
        "color": "orange"
    },
    {
        "location": "Zuerich",
        "country": "Switzerland",
        "startDate": "2019-11-11",
        "endDate": "2019-12-01",
        "color": "blue"
    },
    {
        "location": "Helsinki",
        "country": "Finland",
        "startDate": "2019-12-01",
        "endDate": "2019-12-06",
        "color": "yellow"
    },
    {
        "location": "Zuerich",
        "country": "Switzerland",
        "startDate": "2019-12-06",
        "endDate": "2020-01-22",
        "color": "blue"
    },
    {
        "location": "Frankfurt",
        "country": "Germany",
        "startDate": "2020-01-22",
        "endDate": "2020-01-22",
        "color": "yellow"
    },
    {
        "location": "Minsk",
        "country": "Belarus",
        "startDate": "2020-01-22",
        "endDate": "2020-01-26",
        "color": "gray"
    },
    {
        "location": "Frankfurt",
        "country": "Germany",
        "startDate": "2020-01-26",
        "endDate": "2020-01-26",
        "color": "green"
    },
    {
        "location": "Amsterdam",
        "country": "The Netherlands",
        "startDate": "2020-01-26",
        "endDate": "2020-01-26",
        "color": "green"
    },
    {
        "location": "Leiden",
        "country": "The Netherlands",
        "startDate": "2020-01-26",
        "endDate": "2020-01-30",
        "color": "green"
    },
    {
        "location": "Amsterdam",
        "country": "The Netherlands",
        "startDate": "2020-01-30",
        "endDate": "2020-01-03",
        "color": "green"
    },
    {
        "location": "Mol",
        "country": "Belgium",
        "startDate": "2020-02-03",
        "endDate": "2020-02-16",
        "color": "red"
    },
    {
        "location": "Zuerich",
        "country": "Switzerland",
        "startDate": "2020-02-16",
        "endDate": "present",
        "color": "blue"
    },
    {
        "location": "Mol",
        "country": "Belgium",
        "startDate": "2020-10-18",
        "endDate": "2020-10-28",
        "color": "red"
    },
    {
        "location": "Zuerich",
        "country": "Switzerland",
        "startDate": "2020-10-28",
        "endDate": "present",
        "color": "blue"
    }
]
