[
    {
        "title": "Software Developer",
        "kind": "FTE",
        "date": "2019-01",
        "offerer": "Digital Asset",
        "location": "Z\u00fcrich, Switzerland",
        "terms": {
            "base": "130K CHF/y",
            "variable": "5K profit units at 295E6 USD valuation. 4 year vesting with 1 year cliff"
        }
    },
    {
        "title": "Software Developer",
        "kind": "FTE",
        "date": "2018-09",
        "offerer": "DFINITY",
        "location": "Z\u00fcrich, Switzerland",
        "terms": {
            "base": "135K CHF/y",
            "variable": "60K tokens at 0.4 CHF strike price. 4 year vesting with 1 year cliff"
        }
    },
    {
        "title": "Founder",
        "kind": "Startup Acceleration",
        "date": "2017-08",
        "offerer": "Entrepreneur First 9",
        "location": "London, United Kingdom",
        "terms": {
            "investment": "2KGBP/month stipend for 3 months + 10K GBP + 70k GBP interest-free loan after 3 months",
            "equity": "8% ownership"
        }
    },
    {
        "title": "Software Engineer",
        "kind": "FTE",
        "date": "2017-07",
        "offerer": "Barclays Bank",
        "location": "London, United Kingdom",
        "rate": "55K GBP/y, full-time"
    },
    {
        "title": "Software Engineer",
        "kind": "Contractor",
        "date": "2017-06",
        "offerer": "Standard Chartered",
        "location": "London, United Kingdom",
        "rate": "275 GBP/day, full-time"
    },
    {
        "title": "Chief Technology Officer",
        "date": "2017-02",
        "location": "Z\u00fcrich, Switzerland",
        "offerer": "Cygo"
    },
    {
        "title": "Software Engineering Intern",
        "date": "2015-12",
        "location": "Geneva, Switzerland",
        "offerer": "CERN"
    },
    {
        "title": "Software Engineering Intern",
        "date": "2015-11",
        "location": "Mountainview, San Francisco, United States",
        "offerer": "Google"
    }
]
